FunctionalSimOutput.vcd
$date Feb  6 2025 $end
$version DigiSim Timing Simulator $end
$timescale 1ns $end
$scope module circuit $end
$var wire 1 s1 Node4 $end
$var wire 1 s2 In1 $end
$var wire 1 s3 Node2 $end
$var wire 1 s4 In3 $end
$var wire 1 s5 OUT1 $end
$var wire 1 s6 OUT2 $end
$var wire 1 s7 In4 $end
$var wire 1 s8 Node6 $end
$var wire 1 s9 In2 $end
$var wire 1 s10 Node1 $end
$var wire 1 s11 Node5 $end
$var wire 1 s12 Node7 $end
$var wire 1 s13 Node3 $end
$upscope $end
$enddefinitions $end
$dumpvars
1s1
0s2
0s3
1s4
0s5
1s6
1s7
0s8
0s9
0s10
0s11
1s12
1s13
$end
#0
0s2
#0
1s4
#0
1s9
#0
0s7
#0
1s10
#0
1s3
#0
0s12
#0
1s11
#0
0s6
