TimingSimOutput.vcd
$date Feb  5 2025 $end
$version DigiSim Timing Simulator $end
$timescale 1ns $end
$scope module circuit $end
$var wire 1 s1 Node1 $end
$var wire 1 s2 In1 $end
$var wire 1 s3 In2 $end
$var wire 1 s4 Node2 $end
$var wire 1 s5 In3 $end
$var wire 1 s6 In4 $end
$var wire 1 s7 Q1 $end
$var wire 1 s8 Node5 $end
$var wire 1 s9 In5 $end
$var wire 1 s10 CLK $end
$var wire 1 s11 Q1n $end
$var wire 1 s12 Node4 $end
$var wire 1 s13 Node3 $end
$var wire 1 s14 Node6 $end
$var wire 1 s15 In6 $end
$var wire 1 s16 OUT4 $end
$var wire 1 s17 Q2n $end
$var wire 1 s18 Q3 $end
$var wire 1 s19 Node9 $end
$var wire 1 s20 OUT2 $end
$var wire 1 s21 Node8 $end
$var wire 1 s22 OUT1 $end
$var wire 1 s23 In7 $end
$var wire 1 s24 Node12 $end
$var wire 1 s25 Q3n $end
$var wire 1 s26 Node7 $end
$var wire 1 s27 Node11 $end
$var wire 1 s28 OUT3 $end
$var wire 1 s29 In8 $end
$var wire 1 s30 Node10 $end
$var wire 1 s31 Q2 $end
$var wire 1 s32 Q4 $end
$var wire 1 s33 Q4n $end
$upscope $end
$enddefinitions $end
$dumpvars
0s12
0s9
0s15
0s10
0s7
0s6
0s30
0s5
0s22
0s13
0s23
0s8
0s24
0s18
0s4
0s3
0s11
0s32
0s19
0s17
0s1
0s28
0s2
0s14
0s16
0s27
0s20
0s21
0s25
0s31
0s26
0s33
0s29
$end
#0
0s10
#0
0s11
#0
0s31
#0
0s17
#0
0s7
#0
0s33
#0
0s18
#0
0s25
#0
0s32
#50
1s13
#100
1s4
#120
1s21
#180
1s30
#200
1s1
#200
1s8
#300
0s13
#320
1s19
#320
1s27
#390
0s21
#450
1s26
#480
1s24
#500
1s12
#500
1s2
#550
1s28
#550
1s13
#650
1s14
#700
1s22
#750
1s5
#1000
1s10
#1000
0s17
#1000
1s18
#1000
1s32
#1000
1s31
#1000
0s25
#1000
0s11
#1000
0s33
#1000
1s7
#1200
0s3
#1200
0s24
#1200
1s6
#1240
1s16
#1250
0s4
#1450
0s13
#1550
0s14
#1850
1s9
#2000
0s10
#2000
1s7
#2000
0s17
#2000
1s18
#2000
0s25
#2000
0s33
#2000
1s32
#2000
0s11
#2000
1s31
#2090
0s12
#2100
1s23
#2100
1s15
#2300
1s20
#2600
1s29
#2600
0s2
#2600
0s5
#2650
1s13
#2800
0s8
#2820
0s30
#3000
1s10
#3000
1s11
#3000
1s31
#3000
0s17
#3000
0s25
#3000
1s18
#3000
0s7
#3000
0s32
#3000
1s33
#3100
0s6
#3180
0s26
#3200
1s4
#3210
0s20
#3310
0s16
#3390
0s19
#3400
0s13
#3540
0s28
#3600
1s8
#3700
0s9
#3700
0s23
#3700
1s3
#3850
1s26
#4000
0s10
#4000
0s7
#4000
1s11
#4000
0s32
#4000
1s33
#4000
1s31
#4000
0s25
#4000
0s17
#4000
1s18
#4000
1s12
#4050
1s19
#4200
0s15
#4800
0s29
#4800
1s5
#4980
1s30
#5000
1s10
#5000
1s11
#5000
1s31
#5000
0s17
#5000
1s25
#5000
0s18
#5000
0s7
#5000
0s32
#5000
1s33
#5160
1s24
#5300
0s3
#5300
1s2
#5300
0s4
#5850
1s28
#5900
1s23
#5900
1s15
#5900
1s6
#6000
0s10
#6000
0s7
#6000
1s11
#6000
0s17
#6000
0s32
#6000
1s33
#6000
1s31
#6000
0s18
#6000
1s25
#6400
1s29
#6400
0s9
#7000
1s10
#7000
0s7
#7000
1s11
#7000
0s33
#7000
1s18
#7000
0s25
#7000
1s32
#7000
1s31
#7000
0s17
#7100
0s5
#7200
0s24
#7220
0s30
#7500
0s2
#7500
1s3
#7500
0s6
#7550
1s13
#7600
1s4
#7650
1s14
#7700
0s8
#7800
0s13
#7880
0s26
#7900
0s14
#7940
0s28
#8000
1s8
#8000
0s23
#8000
0s10
#8000
1s15
#8000
1s18
#8000
0s25
#8000
0s33
#8000
0s7
#8000
1s11
#8000
1s32
#8000
1s31
#8000
0s17
#8090
0s19
#8250
1s26
#8450
1s19
#8600
1s9
#8600
0s29
#8780
1s30
#8840
0s12
#9000
1s10
#9000
0s7
#9000
1s33
#9000
0s32
#9000
1s11
#9000
1s31
#9000
0s17
#9000
1s25
#9000
0s18
#9160
1s24
#9200
1s6
#9200
1s5
#9200
0s15
#9200
0s3
#9700
0s4
#9750
1s13
#9800
1s2
#10000
0s13
#10250
1s28
#10300
1s23
#10300
1s29
#10900
0s9
#10900
0s5
#11200
1s12
#11400
0s6
#11400
1s3
#11400
1s15
#11500
1s4
#11550
1s13
#11650
1s14
#11700
0s1
#11700
0s8
#11840
0s28
#11880
0s26
#11940
0s12
#12000
0s2
#12000
1s9
#12040
0s14
#12090
0s19
#12160
1s21
#12200
0s13
#12200
1s1
#12360
1s19
#12390
0s21
#12400
1s8
#12600
0s19
#12600
0s23
#12600
1s5
#12650
1s26
#12850
1s19
#13100
0s4
#13150
1s13
#13200
1s29
#13200
0s3
#13300
0s8
#13480
0s26
#13650
1s28
#13690
0s19
#13800
1s23
#13800
0s15
#13800
1s6
#14000
1s8
#14250
1s26
#14400
0s9
#14450
1s19
#14700
1s12
#14800
1s14
#15000
1s2
#15000
0s5
#15000
0s29
#15000
1s3
#15200
0s13
#15300
0s1
#15300
0s14
#15420
1s21
#15540
0s12
#15630
0s19
